G_i F_B F_AVG F_W
0 -25.49283858741125641245 299.27860578765375976218 763.24051249976571398292
1 -47.00408269948741235567 243.63264270807783873352 577.22269798205104507360
2 -47.00408269948741235567 203.57320679573697930209 507.04345064309006829717
3 -81.79474278508034501556 160.76632966247069589372 404.33805262811688407965
4 -86.42156651195098504559 131.34849962113815990961 404.33805262811688407965
5 -86.42156651195098504559 94.51226080647479932395 303.09952819698423809314
6 -116.49319219738129049802 73.35249967100354240301 303.09952819698423809314
7 -116.49319219738129049802 54.64624226091489589408 303.09952819698423809314
8 -116.49319219738129049802 39.89718548283576637914 303.09952819698423809314
9 -116.49319219738129049802 11.75993309194530134221 211.85009847209408917479
10 -116.49319219738129049802 -8.29280203777545388277 107.95121403096709400415
11 -116.49319219738129049802 -17.17221227841517716683 107.95121403096709400415
12 -116.49319219738129049802 -26.78347804611318139223 78.43251026727904218205
13 -116.49319219738129049802 -30.20487643667364352495 78.43251026727904218205
14 -116.49319219738129049802 -42.72126973274390593360 36.48532586611622718920
15 -116.49319219738129049802 -48.63227714470150431225 36.48532586611622718920
16 -128.25180157628898314215 -61.27209437322930085656 34.71507973543364755642
17 -128.25180157628898314215 -67.80963630509488382359 6.93805683705679143713
18 -133.76603963073915792847 -77.57165555199289030952 -10.87872167007313350950
19 -143.21200368716841921923 -87.82282998417207409148 -13.03522084460252017379
20 -148.21455191631497427807 -92.21380439279988650014 -13.03522084460252017379
21 -148.21455191631497427807 -96.05079466403155663556 -13.03522084460252017379
22 -150.58793325085127889906 -106.41515583612819284554 -57.29287866781676541450
23 -150.58793325085127889906 -109.99979396589962732378 -57.29287866781676541450
24 -152.76438528562721330673 -113.25434922935993142801 -57.29287866781676541450
25 -152.76438528562721330673 -119.02336130693041127415 -57.29287866781676541450
26 -152.76438528562721330673 -120.10255803677608810176 -57.29287866781676541450
27 -152.76438528562721330673 -124.60155528150870907211 -84.00562126969832377199
28 -152.76438528562721330673 -125.65920389436442405895 -84.00562126969832377199
29 -156.32720144737953660297 -130.06714154812090100677 -84.00562126969832377199
30 -157.31184452206335322444 -133.45837624512824959311 -103.15560377475503628375
31 -157.31184452206335322444 -134.82581923145414748433 -103.15560377475503628375
32 -157.31184452206335322444 -136.34781305295553011092 -103.15560377475503628375
33 -158.73105582785174760829 -141.03649033955858271838 -114.36009067486095602817
34 -158.73105582785174760829 -143.26335861173583907657 -114.36009067486095602817
35 -163.44929693299414452667 -145.14899822243998528393 -117.53526544995703773111
36 -163.44929693299414452667 -146.39735413406705788475 -125.75950395123413727561
37 -163.44929693299414452667 -146.87901179050740552157 -126.90811205577870168781
38 -163.44929693299414452667 -148.00480802222119791622 -126.90811205577870168781
39 -163.44929693299414452667 -149.34050209588303914643 -126.90811205577870168781
40 -165.12278515680824853007 -150.91152774187781915316 -129.90949505993384605063
41 -165.12278515680824853007 -151.28126848765148793063 -131.84558383767162581535
42 -172.29548312888670125176 -153.01869338682371335381 -134.88533469926542807116
43 -172.29548312888670125176 -153.90385091831956287933 -134.88533469926542807116
44 -172.29548312888670125176 -154.04349783468452983470 -134.88533469926542807116
45 -173.71100218372893664309 -154.92048522312458658234 -134.88533469926542807116
46 -173.71100218372893664309 -155.36599095398597114581 -134.88533469926542807116
47 -173.71100218372893664309 -157.51054522677767977257 -146.22030917023442952996
48 -173.71100218372893664309 -158.52693114681125052812 -146.22030917023442952996
49 -173.71100218372893664309 -159.12927922011132864100 -146.52886605721565160820
50 -173.71100218372893664309 -159.68701628064656006245 -146.52886605721565160820
51 -173.71100218372893664309 -160.45622451318578782775 -146.52886605721565160820
52 -173.71100218372893664309 -162.18774882913618284874 -151.05150466138027809393
53 -173.71100218372893664309 -162.76657166623581929343 -151.05150466138027809393
54 -173.71100218372893664309 -163.48864276401596384858 -153.47788921930711580899
55 -173.71100218372893664309 -164.01538625623012990218 -154.54775430224566434845
56 -173.71100218372893664309 -164.90700422204901087753 -156.09102755084481373160
57 -174.54217634699446648483 -165.96275532538018637752 -156.09102755084481373160
58 -174.54217634699446648483 -166.54418216565284183162 -157.48676397365278489815
59 -174.54217634699446648483 -167.06323582083041401347 -157.48676397365278489815
60 -174.54217634699446648483 -167.61373865016682316309 -157.86886894927516777898
61 -174.54217634699446648483 -167.84449491069622695250 -157.86886894927516777898
62 -174.54217634699446648483 -168.40591167086094515071 -159.05642787177808372689
63 -174.54217634699446648483 -168.86456469423725934575 -159.05642787177808372689
64 -174.54217634699446648483 -169.39388270930811586368 -159.05642787177808372689
65 -175.44443133842113979881 -169.82862531432763830708 -159.05642787177808372689
66 -175.44443133842113979881 -170.18650349208130023726 -160.45959402037971130994
67 -175.44443133842113979881 -170.61826636308600768643 -164.18823059000635566917
68 -175.44443133842113979881 -171.11034426129668872818 -165.15175157832970853633
69 -175.44443133842113979881 -171.22728002754229237325 -165.15175157832970853633
70 -175.50386438303362979241 -171.38978240372100003697 -165.15175157832970853633
71 -176.09109607034486089105 -171.67347693385542584110 -166.60286102466778856979
72 -176.09109607034486089105 -171.83961930164761611195 -166.60286102466778856979
73 -176.89465311387593260406 -172.41327042158212634604 -166.88223409999804403014
74 -176.89465311387593260406 -172.66447276488389661608 -166.88223409999804403014
75 -176.89465311387593260406 -173.16152862665776979156 -166.88223409999804403014
76 -176.89465311387593260406 -173.30786202511438887086 -166.88223409999804403014
77 -176.89465311387593260406 -173.51171421469834399431 -170.26810188914049604136
78 -176.89465311387593260406 -173.76254631182936805089 -170.29822560661438046736
79 -176.89465311387593260406 -173.80442786016030254359 -170.29822560661438046736
80 -176.89465311387593260406 -173.94527708218939210383 -170.29822560661438046736
81 -176.89465311387593260406 -174.01128519108235082058 -170.29822560661438046736
82 -176.89465311387593260406 -174.14288794239686808396 -171.12196048724865704571
83 -176.89465311387593260406 -174.24801531841367818743 -171.12196048724865704571
84 -176.89465311387593260406 -174.41074710669488467829 -171.91195262300036006309
85 -177.03732997426615725090 -174.72040424410599257499 -171.91195262300036006309
86 -177.03732997426615725090 -174.78901957733447147803 -171.91195262300036006309
87 -177.69349233080026806419 -174.92945049685363301251 -171.91195262300036006309
88 -177.69349233080026806419 -175.13124694697299332802 -172.95938839299111577930
89 -177.69349233080026806419 -175.32354624425101974339 -173.05408436860332699325
90 -177.69349233080026806419 -175.44594596434063760171 -173.05408436860332699325
91 -177.77286830861345379162 -175.57502552749130586562 -173.05408436860332699325
92 -177.77286830861345379162 -175.71670497705326852156 -173.52700583135185752326
93 -177.77286830861345379162 -175.82533922585994901056 -173.52700583135185752326
94 -177.77286830861345379162 -176.08019219844467784242 -173.91646164036629329530
95 -177.77286830861345379162 -176.20629145890498534754 -174.23575164478344845520
96 -177.77286830861345379162 -176.32207434143268187654 -174.23575164478344845520
97 -177.77286830861345379162 -176.50829231855027501297 -174.26338362472782250734
98 -177.87248000137259396070 -176.57972510290684908796 -174.26338362472782250734
99 -178.18054997728353328057 -176.71933681256720660713 -174.26338362472782250734
